wandb: Starting wandb agent 🕵️
wandb: ERROR Error while calling W&B API: Sweep r-clark1242/bayes_sweep_individual/v1094av9 is not running (<Response [400]>)
wandb: ERROR Find detailed error logs at: /data/wiay/2386142c/msci_project/condor_jobs/job_files/wandb/debug-cli.2386142c.log
Error: Sweep r-clark1242/bayes_sweep_individual/v1094av9 is not running
wandb: Starting wandb agent 🕵️
wandb: ERROR Error while calling W&B API: Sweep r-clark1242/bayes_sweep_individual/cojjc8wf is not running (<Response [400]>)
wandb: ERROR Find detailed error logs at: /data/wiay/2386142c/msci_project/condor_jobs/job_files/wandb/debug-cli.2386142c.log
Error: Sweep r-clark1242/bayes_sweep_individual/cojjc8wf is not running
wandb: Starting wandb agent 🕵️
2023-02-22 17:14:52,213 - wandb.wandb_agent - INFO - Running runs: []
2023-02-22 17:14:52,537 - wandb.wandb_agent - INFO - Agent received command: run
2023-02-22 17:14:52,538 - wandb.wandb_agent - INFO - Agent starting run with config:
	attn_dropout: 0.05163668689350709
	dropout: 0.2646105664340962
	epochs: 1000
	freq: H
	input_size: 197
	layers: 800
	learning_rate: 0.0004421399077404971
	loss_levels: [80, 90]
	output_size: 6
	processed_data_name: all_weather_60split
	step_size: 11
	val_check_steps: 10
	val_size: 1320
	var: 8
	weather_exog_list: ['8']
	windows_batch_size: 337
2023-02-22 17:14:52,543 - wandb.wandb_agent - INFO - About to run command: /data/wiay/2386142c/ml_venv/bin/python /data/wiay/2386142c/msci_project/condor_jobs/wandb_bayes_sweep_individual_1/bayes_fullsweep_tft.py wandb/sweep-1xtj6dzv/config-19hwmshy.json
wandb: Currently logged in as: r-clark1242. Use `wandb login --relogin` to force relogin
wandb: WARNING Ignored wandb.init() arg project when running a sweep.
wandb: Tracking run with wandb version 0.13.10
wandb: Run data is saved locally in /data/wiay/2386142c/msci_project/condor_jobs/job_files/wandb/run-20230222_171455-19hwmshy
wandb: Run `wandb offline` to turn off syncing.
wandb: Syncing run devout-sweep-1
wandb: ⭐️ View project at https://wandb.ai/r-clark1242/bayes_sweep_individual
wandb: 🧹 View sweep at https://wandb.ai/r-clark1242/bayes_sweep_individual/sweeps/1xtj6dzv
wandb: 🚀 View run at https://wandb.ai/r-clark1242/bayes_sweep_individual/runs/19hwmshy
2023-02-22 17:14:57,557 - wandb.wandb_agent - INFO - Running runs: ['19hwmshy']
Traceback (most recent call last):
  File "/data/wiay/2386142c/msci_project/condor_jobs/wandb_bayes_sweep_individual_1/bayes_fullsweep_tft.py", line 104, in <module>
    fcst.fit(df=training_df, val_size=vars["val_size"])
  File "/data/wiay/2386142c/msci_project/neuralforecast/neuralforecast/core.py", line 183, in fit
    model.fit(self.dataset, val_size=val_size)
  File "/data/wiay/2386142c/msci_project/neuralforecast/neuralforecast/common/_base_windows.py", line 571, in fit
    trainer.fit(self, datamodule=datamodule)
  File "/data/wiay/2386142c/ml_venv/lib/python3.9/site-packages/pytorch_lightning/trainer/trainer.py", line 770, in fit
    self._call_and_handle_interrupt(
  File "/data/wiay/2386142c/ml_venv/lib/python3.9/site-packages/pytorch_lightning/trainer/trainer.py", line 723, in _call_and_handle_interrupt
    return trainer_fn(*args, **kwargs)
  File "/data/wiay/2386142c/ml_venv/lib/python3.9/site-packages/pytorch_lightning/trainer/trainer.py", line 811, in _fit_impl
    results = self._run(model, ckpt_path=self.ckpt_path)
  File "/data/wiay/2386142c/ml_venv/lib/python3.9/site-packages/pytorch_lightning/trainer/trainer.py", line 1236, in _run
    results = self._run_stage()
  File "/data/wiay/2386142c/ml_venv/lib/python3.9/site-packages/pytorch_lightning/trainer/trainer.py", line 1323, in _run_stage
    return self._run_train()
  File "/data/wiay/2386142c/ml_venv/lib/python3.9/site-packages/pytorch_lightning/trainer/trainer.py", line 1353, in _run_train
    self.fit_loop.run()
  File "/data/wiay/2386142c/ml_venv/lib/python3.9/site-packages/pytorch_lightning/loops/base.py", line 204, in run
    self.advance(*args, **kwargs)
  File "/data/wiay/2386142c/ml_venv/lib/python3.9/site-packages/pytorch_lightning/loops/fit_loop.py", line 266, in advance
    self._outputs = self.epoch_loop.run(self._data_fetcher)
  File "/data/wiay/2386142c/ml_venv/lib/python3.9/site-packages/pytorch_lightning/loops/base.py", line 204, in run
    self.advance(*args, **kwargs)
  File "/data/wiay/2386142c/ml_venv/lib/python3.9/site-packages/pytorch_lightning/loops/epoch/training_epoch_loop.py", line 208, in advance
    batch_output = self.batch_loop.run(batch, batch_idx)
  File "/data/wiay/2386142c/ml_venv/lib/python3.9/site-packages/pytorch_lightning/loops/base.py", line 204, in run
    self.advance(*args, **kwargs)
  File "/data/wiay/2386142c/ml_venv/lib/python3.9/site-packages/pytorch_lightning/loops/batch/training_batch_loop.py", line 88, in advance
    outputs = self.optimizer_loop.run(split_batch, optimizers, batch_idx)
  File "/data/wiay/2386142c/ml_venv/lib/python3.9/site-packages/pytorch_lightning/loops/base.py", line 204, in run
    self.advance(*args, **kwargs)
  File "/data/wiay/2386142c/ml_venv/lib/python3.9/site-packages/pytorch_lightning/loops/optimization/optimizer_loop.py", line 203, in advance
    result = self._run_optimization(
  File "/data/wiay/2386142c/ml_venv/lib/python3.9/site-packages/pytorch_lightning/loops/optimization/optimizer_loop.py", line 256, in _run_optimization
    self._optimizer_step(optimizer, opt_idx, batch_idx, closure)
  File "/data/wiay/2386142c/ml_venv/lib/python3.9/site-packages/pytorch_lightning/loops/optimization/optimizer_loop.py", line 369, in _optimizer_step
    self.trainer._call_lightning_module_hook(
  File "/data/wiay/2386142c/ml_venv/lib/python3.9/site-packages/pytorch_lightning/trainer/trainer.py", line 1595, in _call_lightning_module_hook
    output = fn(*args, **kwargs)
  File "/data/wiay/2386142c/ml_venv/lib/python3.9/site-packages/pytorch_lightning/core/lightning.py", line 1646, in optimizer_step
    optimizer.step(closure=optimizer_closure)
  File "/data/wiay/2386142c/ml_venv/lib/python3.9/site-packages/pytorch_lightning/core/optimizer.py", line 168, in step
    step_output = self._strategy.optimizer_step(self._optimizer, self._optimizer_idx, closure, **kwargs)
  File "/data/wiay/2386142c/ml_venv/lib/python3.9/site-packages/pytorch_lightning/strategies/strategy.py", line 193, in optimizer_step
    return self.precision_plugin.optimizer_step(model, optimizer, opt_idx, closure, **kwargs)
  File "/data/wiay/2386142c/ml_venv/lib/python3.9/site-packages/pytorch_lightning/plugins/precision/precision_plugin.py", line 155, in optimizer_step
    return optimizer.step(closure=closure, **kwargs)
  File "/data/wiay/2386142c/ml_venv/lib/python3.9/site-packages/torch/optim/lr_scheduler.py", line 65, in wrapper
    return wrapped(*args, **kwargs)
  File "/data/wiay/2386142c/ml_venv/lib/python3.9/site-packages/torch/optim/optimizer.py", line 113, in wrapper
    return func(*args, **kwargs)
  File "/data/wiay/2386142c/ml_venv/lib/python3.9/site-packages/torch/autograd/grad_mode.py", line 27, in decorate_context
    return func(*args, **kwargs)
  File "/data/wiay/2386142c/ml_venv/lib/python3.9/site-packages/torch/optim/adam.py", line 118, in step
    loss = closure()
  File "/data/wiay/2386142c/ml_venv/lib/python3.9/site-packages/pytorch_lightning/plugins/precision/precision_plugin.py", line 140, in _wrap_closure
    closure_result = closure()
  File "/data/wiay/2386142c/ml_venv/lib/python3.9/site-packages/pytorch_lightning/loops/optimization/optimizer_loop.py", line 148, in __call__
    self._result = self.closure(*args, **kwargs)
  File "/data/wiay/2386142c/ml_venv/lib/python3.9/site-packages/pytorch_lightning/loops/optimization/optimizer_loop.py", line 134, in closure
    step_output = self._step_fn()
  File "/data/wiay/2386142c/ml_venv/lib/python3.9/site-packages/pytorch_lightning/loops/optimization/optimizer_loop.py", line 427, in _training_step
    training_step_output = self.trainer._call_strategy_hook("training_step", *step_kwargs.values())
  File "/data/wiay/2386142c/ml_venv/lib/python3.9/site-packages/pytorch_lightning/trainer/trainer.py", line 1765, in _call_strategy_hook
    output = fn(*args, **kwargs)
  File "/data/wiay/2386142c/ml_venv/lib/python3.9/site-packages/pytorch_lightning/strategies/strategy.py", line 333, in training_step
    return self.model.training_step(*args, **kwargs)
  File "/data/wiay/2386142c/msci_project/neuralforecast/neuralforecast/models/tft.py", line 631, in training_step
    output = self(x=windows)
  File "/data/wiay/2386142c/ml_venv/lib/python3.9/site-packages/torch/nn/modules/module.py", line 1130, in _call_impl
    return forward_call(*input, **kwargs)
  File "/data/wiay/2386142c/msci_project/neuralforecast/neuralforecast/models/tft.py", line 593, in forward
    temporal_features = self.temporal_encoder(
  File "/data/wiay/2386142c/ml_venv/lib/python3.9/site-packages/torch/nn/modules/module.py", line 1130, in _call_impl
    return forward_call(*input, **kwargs)
  File "/data/wiay/2386142c/msci_project/neuralforecast/neuralforecast/models/tft.py", line 310, in forward
    historical_features, _ = self.history_vsn(historical_inputs, cs)
  File "/data/wiay/2386142c/ml_venv/lib/python3.9/site-packages/torch/nn/modules/module.py", line 1130, in _call_impl
    return forward_call(*input, **kwargs)
  File "/data/wiay/2386142c/msci_project/neuralforecast/neuralforecast/models/tft.py", line 193, in forward
    transformed_embed_list = [m(x[..., i, :]) for i, m in enumerate(self.var_grns)]
  File "/data/wiay/2386142c/msci_project/neuralforecast/neuralforecast/models/tft.py", line 193, in <listcomp>
    transformed_embed_list = [m(x[..., i, :]) for i, m in enumerate(self.var_grns)]
  File "/data/wiay/2386142c/ml_venv/lib/python3.9/site-packages/torch/nn/modules/module.py", line 1130, in _call_impl
    return forward_call(*input, **kwargs)
  File "/data/wiay/2386142c/msci_project/neuralforecast/neuralforecast/models/tft.py", line 72, in forward
    x = self.lin_a(a)
  File "/data/wiay/2386142c/ml_venv/lib/python3.9/site-packages/torch/nn/modules/module.py", line 1130, in _call_impl
    return forward_call(*input, **kwargs)
  File "/data/wiay/2386142c/ml_venv/lib/python3.9/site-packages/torch/nn/modules/linear.py", line 114, in forward
    return F.linear(input, self.weight, self.bias)
RuntimeError: CUDA out of memory. Tried to allocate 204.00 MiB (GPU 0; 10.76 GiB total capacity; 7.44 GiB already allocated; 69.56 MiB free; 7.55 GiB reserved in total by PyTorch) If reserved memory is >> allocated memory try setting max_split_size_mb to avoid fragmentation.  See documentation for Memory Management and PYTORCH_CUDA_ALLOC_CONF
2023-02-22 17:15:07,938 - wandb.wandb_agent - INFO - Cleaning up finished run: 19hwmshy
wandb: Waiting for W&B process to finish... (failed 1). Press Control-C to abort syncing.
wandb: 
wandb: Run history:
wandb: min_valid_loss ▁
wandb:     valid_loss ▁
wandb: 
wandb: Run summary:
wandb: min_valid_loss 1.10167
wandb:     valid_loss 1.10167
wandb: 
wandb: 🚀 View run devout-sweep-1 at: https://wandb.ai/r-clark1242/bayes_sweep_individual/runs/19hwmshy
wandb: Synced 5 W&B file(s), 0 media file(s), 0 artifact file(s) and 0 other file(s)
wandb: Find logs at: ./wandb/run-20230222_171455-19hwmshy/logs
2023-02-22 17:15:16,057 - wandb.wandb_agent - INFO - Agent received command: run
2023-02-22 17:15:16,058 - wandb.wandb_agent - INFO - Agent starting run with config:
	attn_dropout: 0.9630093070836648
	dropout: 0.5357877241193904
	epochs: 1000
	freq: H
	input_size: 214
	layers: 480
	learning_rate: 0.07389419942012078
	loss_levels: [80, 90]
	output_size: 6
	processed_data_name: all_weather_60split
	step_size: 11
	val_check_steps: 10
	val_size: 1320
	var: 8
	weather_exog_list: ['8']
	windows_batch_size: 683
2023-02-22 17:15:16,065 - wandb.wandb_agent - INFO - About to run command: /data/wiay/2386142c/ml_venv/bin/python /data/wiay/2386142c/msci_project/condor_jobs/wandb_bayes_sweep_individual_1/bayes_fullsweep_tft.py wandb/sweep-1xtj6dzv/config-3uih1wxz.json
wandb: Currently logged in as: r-clark1242. Use `wandb login --relogin` to force relogin
wandb: WARNING Ignored wandb.init() arg project when running a sweep.
wandb: Tracking run with wandb version 0.13.10
wandb: Run data is saved locally in /data/wiay/2386142c/msci_project/condor_jobs/job_files/wandb/run-20230222_171519-3uih1wxz
wandb: Run `wandb offline` to turn off syncing.
wandb: Syncing run swept-sweep-2
wandb: ⭐️ View project at https://wandb.ai/r-clark1242/bayes_sweep_individual
wandb: 🧹 View sweep at https://wandb.ai/r-clark1242/bayes_sweep_individual/sweeps/1xtj6dzv
wandb: 🚀 View run at https://wandb.ai/r-clark1242/bayes_sweep_individual/runs/3uih1wxz
2023-02-22 17:15:21,080 - wandb.wandb_agent - INFO - Running runs: ['3uih1wxz']
Traceback (most recent call last):
  File "/data/wiay/2386142c/msci_project/condor_jobs/wandb_bayes_sweep_individual_1/bayes_fullsweep_tft.py", line 104, in <module>
    fcst.fit(df=training_df, val_size=vars["val_size"])
  File "/data/wiay/2386142c/msci_project/neuralforecast/neuralforecast/core.py", line 183, in fit
    model.fit(self.dataset, val_size=val_size)
  File "/data/wiay/2386142c/msci_project/neuralforecast/neuralforecast/common/_base_windows.py", line 571, in fit
    trainer.fit(self, datamodule=datamodule)
  File "/data/wiay/2386142c/ml_venv/lib/python3.9/site-packages/pytorch_lightning/trainer/trainer.py", line 770, in fit
    self._call_and_handle_interrupt(
  File "/data/wiay/2386142c/ml_venv/lib/python3.9/site-packages/pytorch_lightning/trainer/trainer.py", line 723, in _call_and_handle_interrupt
    return trainer_fn(*args, **kwargs)
  File "/data/wiay/2386142c/ml_venv/lib/python3.9/site-packages/pytorch_lightning/trainer/trainer.py", line 811, in _fit_impl
    results = self._run(model, ckpt_path=self.ckpt_path)
  File "/data/wiay/2386142c/ml_venv/lib/python3.9/site-packages/pytorch_lightning/trainer/trainer.py", line 1236, in _run
    results = self._run_stage()
  File "/data/wiay/2386142c/ml_venv/lib/python3.9/site-packages/pytorch_lightning/trainer/trainer.py", line 1323, in _run_stage
    return self._run_train()
  File "/data/wiay/2386142c/ml_venv/lib/python3.9/site-packages/pytorch_lightning/trainer/trainer.py", line 1353, in _run_train
    self.fit_loop.run()
  File "/data/wiay/2386142c/ml_venv/lib/python3.9/site-packages/pytorch_lightning/loops/base.py", line 204, in run
    self.advance(*args, **kwargs)
  File "/data/wiay/2386142c/ml_venv/lib/python3.9/site-packages/pytorch_lightning/loops/fit_loop.py", line 266, in advance
    self._outputs = self.epoch_loop.run(self._data_fetcher)
  File "/data/wiay/2386142c/ml_venv/lib/python3.9/site-packages/pytorch_lightning/loops/base.py", line 204, in run
    self.advance(*args, **kwargs)
  File "/data/wiay/2386142c/ml_venv/lib/python3.9/site-packages/pytorch_lightning/loops/epoch/training_epoch_loop.py", line 208, in advance
    batch_output = self.batch_loop.run(batch, batch_idx)
  File "/data/wiay/2386142c/ml_venv/lib/python3.9/site-packages/pytorch_lightning/loops/base.py", line 204, in run
    self.advance(*args, **kwargs)
  File "/data/wiay/2386142c/ml_venv/lib/python3.9/site-packages/pytorch_lightning/loops/batch/training_batch_loop.py", line 88, in advance
    outputs = self.optimizer_loop.run(split_batch, optimizers, batch_idx)
  File "/data/wiay/2386142c/ml_venv/lib/python3.9/site-packages/pytorch_lightning/loops/base.py", line 204, in run
    self.advance(*args, **kwargs)
  File "/data/wiay/2386142c/ml_venv/lib/python3.9/site-packages/pytorch_lightning/loops/optimization/optimizer_loop.py", line 203, in advance
    result = self._run_optimization(
  File "/data/wiay/2386142c/ml_venv/lib/python3.9/site-packages/pytorch_lightning/loops/optimization/optimizer_loop.py", line 256, in _run_optimization
    self._optimizer_step(optimizer, opt_idx, batch_idx, closure)
  File "/data/wiay/2386142c/ml_venv/lib/python3.9/site-packages/pytorch_lightning/loops/optimization/optimizer_loop.py", line 369, in _optimizer_step
    self.trainer._call_lightning_module_hook(
  File "/data/wiay/2386142c/ml_venv/lib/python3.9/site-packages/pytorch_lightning/trainer/trainer.py", line 1595, in _call_lightning_module_hook
    output = fn(*args, **kwargs)
  File "/data/wiay/2386142c/ml_venv/lib/python3.9/site-packages/pytorch_lightning/core/lightning.py", line 1646, in optimizer_step
    optimizer.step(closure=optimizer_closure)
  File "/data/wiay/2386142c/ml_venv/lib/python3.9/site-packages/pytorch_lightning/core/optimizer.py", line 168, in step
    step_output = self._strategy.optimizer_step(self._optimizer, self._optimizer_idx, closure, **kwargs)
  File "/data/wiay/2386142c/ml_venv/lib/python3.9/site-packages/pytorch_lightning/strategies/strategy.py", line 193, in optimizer_step
    return self.precision_plugin.optimizer_step(model, optimizer, opt_idx, closure, **kwargs)
  File "/data/wiay/2386142c/ml_venv/lib/python3.9/site-packages/pytorch_lightning/plugins/precision/precision_plugin.py", line 155, in optimizer_step
    return optimizer.step(closure=closure, **kwargs)
  File "/data/wiay/2386142c/ml_venv/lib/python3.9/site-packages/torch/optim/lr_scheduler.py", line 65, in wrapper
    return wrapped(*args, **kwargs)
  File "/data/wiay/2386142c/ml_venv/lib/python3.9/site-packages/torch/optim/optimizer.py", line 113, in wrapper
    return func(*args, **kwargs)
  File "/data/wiay/2386142c/ml_venv/lib/python3.9/site-packages/torch/autograd/grad_mode.py", line 27, in decorate_context
    return func(*args, **kwargs)
  File "/data/wiay/2386142c/ml_venv/lib/python3.9/site-packages/torch/optim/adam.py", line 118, in step
    loss = closure()
  File "/data/wiay/2386142c/ml_venv/lib/python3.9/site-packages/pytorch_lightning/plugins/precision/precision_plugin.py", line 140, in _wrap_closure
    closure_result = closure()
  File "/data/wiay/2386142c/ml_venv/lib/python3.9/site-packages/pytorch_lightning/loops/optimization/optimizer_loop.py", line 148, in __call__
    self._result = self.closure(*args, **kwargs)
  File "/data/wiay/2386142c/ml_venv/lib/python3.9/site-packages/pytorch_lightning/loops/optimization/optimizer_loop.py", line 134, in closure
    step_output = self._step_fn()
  File "/data/wiay/2386142c/ml_venv/lib/python3.9/site-packages/pytorch_lightning/loops/optimization/optimizer_loop.py", line 427, in _training_step
    training_step_output = self.trainer._call_strategy_hook("training_step", *step_kwargs.values())
  File "/data/wiay/2386142c/ml_venv/lib/python3.9/site-packages/pytorch_lightning/trainer/trainer.py", line 1765, in _call_strategy_hook
    output = fn(*args, **kwargs)
  File "/data/wiay/2386142c/ml_venv/lib/python3.9/site-packages/pytorch_lightning/strategies/strategy.py", line 333, in training_step
    return self.model.training_step(*args, **kwargs)
  File "/data/wiay/2386142c/msci_project/neuralforecast/neuralforecast/models/tft.py", line 631, in training_step
    output = self(x=windows)
  File "/data/wiay/2386142c/ml_venv/lib/python3.9/site-packages/torch/nn/modules/module.py", line 1130, in _call_impl
    return forward_call(*input, **kwargs)
  File "/data/wiay/2386142c/msci_project/neuralforecast/neuralforecast/models/tft.py", line 593, in forward
    temporal_features = self.temporal_encoder(
  File "/data/wiay/2386142c/ml_venv/lib/python3.9/site-packages/torch/nn/modules/module.py", line 1130, in _call_impl
    return forward_call(*input, **kwargs)
  File "/data/wiay/2386142c/msci_project/neuralforecast/neuralforecast/models/tft.py", line 310, in forward
    historical_features, _ = self.history_vsn(historical_inputs, cs)
  File "/data/wiay/2386142c/ml_venv/lib/python3.9/site-packages/torch/nn/modules/module.py", line 1130, in _call_impl
    return forward_call(*input, **kwargs)
  File "/data/wiay/2386142c/msci_project/neuralforecast/neuralforecast/models/tft.py", line 193, in forward
    transformed_embed_list = [m(x[..., i, :]) for i, m in enumerate(self.var_grns)]
  File "/data/wiay/2386142c/msci_project/neuralforecast/neuralforecast/models/tft.py", line 193, in <listcomp>
    transformed_embed_list = [m(x[..., i, :]) for i, m in enumerate(self.var_grns)]
  File "/data/wiay/2386142c/ml_venv/lib/python3.9/site-packages/torch/nn/modules/module.py", line 1130, in _call_impl
    return forward_call(*input, **kwargs)
  File "/data/wiay/2386142c/msci_project/neuralforecast/neuralforecast/models/tft.py", line 80, in forward
    x = x + y
RuntimeError: CUDA out of memory. Tried to allocate 268.00 MiB (GPU 0; 10.76 GiB total capacity; 7.36 GiB already allocated; 83.56 MiB free; 7.53 GiB reserved in total by PyTorch) If reserved memory is >> allocated memory try setting max_split_size_mb to avoid fragmentation.  See documentation for Memory Management and PYTORCH_CUDA_ALLOC_CONF
wandb: Waiting for W&B process to finish... (failed 1). Press Control-C to abort syncing.
wandb: 
wandb: Run history:
wandb: min_valid_loss ▁
wandb:     valid_loss ▁
wandb: 
wandb: Run summary:
wandb: min_valid_loss 1.04723
wandb:     valid_loss 1.04723
wandb: 
wandb: 🚀 View run swept-sweep-2 at: https://wandb.ai/r-clark1242/bayes_sweep_individual/runs/3uih1wxz
wandb: Synced 5 W&B file(s), 0 media file(s), 0 artifact file(s) and 0 other file(s)
wandb: Find logs at: ./wandb/run-20230222_171519-3uih1wxz/logs
2023-02-22 17:15:36,636 - wandb.wandb_agent - INFO - Cleaning up finished run: 3uih1wxz
2023-02-22 17:15:37,679 - wandb.wandb_agent - INFO - Agent received command: run
2023-02-22 17:15:37,679 - wandb.wandb_agent - INFO - Agent starting run with config:
	attn_dropout: 0.6263884665989194
	dropout: 0.9471255782365376
	epochs: 1000
	freq: H
	input_size: 211
	layers: 80
	learning_rate: 0.002026965365643359
	loss_levels: [80, 90]
	output_size: 6
	processed_data_name: all_weather_60split
	step_size: 5
	val_check_steps: 10
	val_size: 1320
	var: 8
	weather_exog_list: ['8']
	windows_batch_size: 461
2023-02-22 17:15:37,687 - wandb.wandb_agent - INFO - About to run command: /data/wiay/2386142c/ml_venv/bin/python /data/wiay/2386142c/msci_project/condor_jobs/wandb_bayes_sweep_individual_1/bayes_fullsweep_tft.py wandb/sweep-1xtj6dzv/config-6kkvd7aa.json
wandb: Currently logged in as: r-clark1242. Use `wandb login --relogin` to force relogin
wandb: WARNING Ignored wandb.init() arg project when running a sweep.
wandb: Tracking run with wandb version 0.13.10
wandb: Run data is saved locally in /data/wiay/2386142c/msci_project/condor_jobs/job_files/wandb/run-20230222_171541-6kkvd7aa
wandb: Run `wandb offline` to turn off syncing.
wandb: Syncing run devout-sweep-3
wandb: ⭐️ View project at https://wandb.ai/r-clark1242/bayes_sweep_individual
wandb: 🧹 View sweep at https://wandb.ai/r-clark1242/bayes_sweep_individual/sweeps/1xtj6dzv
wandb: 🚀 View run at https://wandb.ai/r-clark1242/bayes_sweep_individual/runs/6kkvd7aa
2023-02-22 17:15:42,701 - wandb.wandb_agent - INFO - Running runs: ['6kkvd7aa']
