Traceback (most recent call last):
  File "/data/wiay/2386142c/msci_project/condor_jobs/wandb_bayes_sweep_individual_1/run_sweeps.py", line 4, in <module>
    with open("sweeps.txt", "r") as f:
FileNotFoundError: [Errno 2] No such file or directory: 'sweeps.txt'
