wandb: Starting wandb agent 🕵️
2023-02-21 00:06:52,739 - wandb.wandb_agent - INFO - Running runs: []
2023-02-21 00:06:53,382 - wandb.wandb_agent - INFO - Agent received command: run
2023-02-21 00:06:53,382 - wandb.wandb_agent - INFO - Agent starting run with config:
	epochs: 257
	freq: H
	input_size: 228
	layers: 1000
	learning_rate: 0.00029663108751421907
	loss_levels: [80, 90]
	output_size: 6
	processed_data_name: all_weather
	val_check_steps: 10
	val_size: 500
	weather_exog_list: ['7']
	windows_batch_size: 32
2023-02-21 00:06:53,384 - wandb.wandb_agent - INFO - About to run command: /data/wiay/2386142c/ml_venv/bin/python /data/wiay/2386142c/msci_project/condor_jobs/wandb_bayes_fullsweep/bayes_fullsweep_tft.py wandb/sweep-majbrqqw/config-oagfiaf3.json
2023-02-21 00:06:58,398 - wandb.wandb_agent - INFO - Running runs: ['oagfiaf3']
wandb: Currently logged in as: r-clark1242. Use `wandb login --relogin` to force relogin
wandb: WARNING Ignored wandb.init() arg project when running a sweep.
wandb: Tracking run with wandb version 0.13.10
wandb: Run data is saved locally in /var/lib/condor/execute/dir_1402841/wandb/run-20230221_000658-oagfiaf3
wandb: Run `wandb offline` to turn off syncing.
wandb: Syncing run usual-sweep-154
wandb: ⭐️ View project at https://wandb.ai/r-clark1242/bayes_fullsweep
wandb: 🧹 View sweep at https://wandb.ai/r-clark1242/bayes_fullsweep/sweeps/majbrqqw
wandb: 🚀 View run at https://wandb.ai/r-clark1242/bayes_fullsweep/runs/oagfiaf3
Traceback (most recent call last):
  File "/data/wiay/2386142c/msci_project/condor_jobs/wandb_bayes_fullsweep/bayes_fullsweep_tft.py", line 83, in <module>
    fcst.fit(df=training_df, val_size=vars["val_size"])
  File "/data/wiay/2386142c/msci_project/neuralforecast/neuralforecast/core.py", line 183, in fit
    model.fit(self.dataset, val_size=val_size)
  File "/data/wiay/2386142c/msci_project/neuralforecast/neuralforecast/common/_base_windows.py", line 571, in fit
    trainer.fit(self, datamodule=datamodule)
  File "/data/wiay/2386142c/ml_venv/lib/python3.9/site-packages/pytorch_lightning/trainer/trainer.py", line 770, in fit
    self._call_and_handle_interrupt(
  File "/data/wiay/2386142c/ml_venv/lib/python3.9/site-packages/pytorch_lightning/trainer/trainer.py", line 723, in _call_and_handle_interrupt
    return trainer_fn(*args, **kwargs)
  File "/data/wiay/2386142c/ml_venv/lib/python3.9/site-packages/pytorch_lightning/trainer/trainer.py", line 811, in _fit_impl
    results = self._run(model, ckpt_path=self.ckpt_path)
  File "/data/wiay/2386142c/ml_venv/lib/python3.9/site-packages/pytorch_lightning/trainer/trainer.py", line 1217, in _run
    self.strategy.setup(self)
  File "/data/wiay/2386142c/ml_venv/lib/python3.9/site-packages/pytorch_lightning/strategies/single_device.py", line 71, in setup
    self.model_to_device()
  File "/data/wiay/2386142c/ml_venv/lib/python3.9/site-packages/pytorch_lightning/strategies/single_device.py", line 68, in model_to_device
    self.model.to(self.root_device)
  File "/data/wiay/2386142c/ml_venv/lib/python3.9/site-packages/pytorch_lightning/core/mixins/device_dtype_mixin.py", line 121, in to
    return super().to(*args, **kwargs)
  File "/data/wiay/2386142c/ml_venv/lib/python3.9/site-packages/torch/nn/modules/module.py", line 927, in to
    return self._apply(convert)
  File "/data/wiay/2386142c/ml_venv/lib/python3.9/site-packages/torch/nn/modules/module.py", line 579, in _apply
    module._apply(fn)
  File "/data/wiay/2386142c/ml_venv/lib/python3.9/site-packages/torch/nn/modules/module.py", line 602, in _apply
    param_applied = fn(param)
  File "/data/wiay/2386142c/ml_venv/lib/python3.9/site-packages/torch/nn/modules/module.py", line 925, in convert
    return t.to(device, dtype if t.is_floating_point() or t.is_complex() else None, non_blocking)
RuntimeError: CUDA error: out of memory
CUDA kernel errors might be asynchronously reported at some other API call,so the stacktrace below might be incorrect.
For debugging consider passing CUDA_LAUNCH_BLOCKING=1.
2023-02-21 00:07:03,572 - wandb.wandb_agent - INFO - Cleaning up finished run: oagfiaf3
wandb: Waiting for W&B process to finish... (failed 1). Press Control-C to abort syncing.
wandb: - 0.009 MB of 0.009 MB uploaded (0.000 MB deduped)wandb: 🚀 View run usual-sweep-154 at: https://wandb.ai/r-clark1242/bayes_fullsweep/runs/oagfiaf3
wandb: Synced 5 W&B file(s), 0 media file(s), 0 artifact file(s) and 0 other file(s)
wandb: Find logs at: ./wandb/run-20230221_000658-oagfiaf3/logs
2023-02-21 00:07:07,265 - wandb.wandb_agent - INFO - Agent received command: run
2023-02-21 00:07:07,265 - wandb.wandb_agent - INFO - Agent starting run with config:
	epochs: 261
	freq: H
	input_size: 202
	layers: 760
	learning_rate: 0.00011973161026326991
	loss_levels: [80, 90]
	output_size: 6
	processed_data_name: all_weather
	val_check_steps: 10
	val_size: 500
	weather_exog_list: ['8']
	windows_batch_size: 64
2023-02-21 00:07:07,267 - wandb.wandb_agent - INFO - About to run command: /data/wiay/2386142c/ml_venv/bin/python /data/wiay/2386142c/msci_project/condor_jobs/wandb_bayes_fullsweep/bayes_fullsweep_tft.py wandb/sweep-majbrqqw/config-7yibzj5z.json
wandb: Currently logged in as: r-clark1242. Use `wandb login --relogin` to force relogin
wandb: WARNING Ignored wandb.init() arg project when running a sweep.
2023-02-21 00:07:12,279 - wandb.wandb_agent - INFO - Running runs: ['7yibzj5z']
wandb: Tracking run with wandb version 0.13.10
wandb: Run data is saved locally in /var/lib/condor/execute/dir_1402841/wandb/run-20230221_000712-7yibzj5z
wandb: Run `wandb offline` to turn off syncing.
wandb: Syncing run splendid-sweep-155
wandb: ⭐️ View project at https://wandb.ai/r-clark1242/bayes_fullsweep
wandb: 🧹 View sweep at https://wandb.ai/r-clark1242/bayes_fullsweep/sweeps/majbrqqw
wandb: 🚀 View run at https://wandb.ai/r-clark1242/bayes_fullsweep/runs/7yibzj5z
Traceback (most recent call last):
  File "/data/wiay/2386142c/msci_project/condor_jobs/wandb_bayes_fullsweep/bayes_fullsweep_tft.py", line 83, in <module>
    fcst.fit(df=training_df, val_size=vars["val_size"])
  File "/data/wiay/2386142c/msci_project/neuralforecast/neuralforecast/core.py", line 183, in fit
    model.fit(self.dataset, val_size=val_size)
  File "/data/wiay/2386142c/msci_project/neuralforecast/neuralforecast/common/_base_windows.py", line 571, in fit
    trainer.fit(self, datamodule=datamodule)
  File "/data/wiay/2386142c/ml_venv/lib/python3.9/site-packages/pytorch_lightning/trainer/trainer.py", line 770, in fit
    self._call_and_handle_interrupt(
  File "/data/wiay/2386142c/ml_venv/lib/python3.9/site-packages/pytorch_lightning/trainer/trainer.py", line 723, in _call_and_handle_interrupt
    return trainer_fn(*args, **kwargs)
  File "/data/wiay/2386142c/ml_venv/lib/python3.9/site-packages/pytorch_lightning/trainer/trainer.py", line 811, in _fit_impl
    results = self._run(model, ckpt_path=self.ckpt_path)
  File "/data/wiay/2386142c/ml_venv/lib/python3.9/site-packages/pytorch_lightning/trainer/trainer.py", line 1217, in _run
    self.strategy.setup(self)
  File "/data/wiay/2386142c/ml_venv/lib/python3.9/site-packages/pytorch_lightning/strategies/single_device.py", line 71, in setup
    self.model_to_device()
  File "/data/wiay/2386142c/ml_venv/lib/python3.9/site-packages/pytorch_lightning/strategies/single_device.py", line 68, in model_to_device
    self.model.to(self.root_device)
  File "/data/wiay/2386142c/ml_venv/lib/python3.9/site-packages/pytorch_lightning/core/mixins/device_dtype_mixin.py", line 121, in to
    return super().to(*args, **kwargs)
  File "/data/wiay/2386142c/ml_venv/lib/python3.9/site-packages/torch/nn/modules/module.py", line 927, in to
    return self._apply(convert)
  File "/data/wiay/2386142c/ml_venv/lib/python3.9/site-packages/torch/nn/modules/module.py", line 579, in _apply
    module._apply(fn)
  File "/data/wiay/2386142c/ml_venv/lib/python3.9/site-packages/torch/nn/modules/module.py", line 602, in _apply
    param_applied = fn(param)
  File "/data/wiay/2386142c/ml_venv/lib/python3.9/site-packages/torch/nn/modules/module.py", line 925, in convert
    return t.to(device, dtype if t.is_floating_point() or t.is_complex() else None, non_blocking)
RuntimeError: CUDA error: out of memory
CUDA kernel errors might be asynchronously reported at some other API call,so the stacktrace below might be incorrect.
For debugging consider passing CUDA_LAUNCH_BLOCKING=1.
wandb: Waiting for W&B process to finish... (failed 1). Press Control-C to abort syncing.
wandb: 🚀 View run splendid-sweep-155 at: https://wandb.ai/r-clark1242/bayes_fullsweep/runs/7yibzj5z
wandb: Synced 5 W&B file(s), 0 media file(s), 0 artifact file(s) and 0 other file(s)
wandb: Find logs at: ./wandb/run-20230221_000712-7yibzj5z/logs
2023-02-21 00:07:22,631 - wandb.wandb_agent - INFO - Cleaning up finished run: 7yibzj5z
2023-02-21 00:07:23,175 - wandb.wandb_agent - INFO - Agent received command: run
2023-02-21 00:07:23,175 - wandb.wandb_agent - INFO - Agent starting run with config:
	epochs: 100
	freq: H
	input_size: 325
	layers: 1000
	learning_rate: 2.5926682053908637e-05
	loss_levels: [80, 90]
	output_size: 6
	processed_data_name: all_weather
	val_check_steps: 10
	val_size: 500
	weather_exog_list: ['9']
	windows_batch_size: 128
2023-02-21 00:07:23,178 - wandb.wandb_agent - INFO - About to run command: /data/wiay/2386142c/ml_venv/bin/python /data/wiay/2386142c/msci_project/condor_jobs/wandb_bayes_fullsweep/bayes_fullsweep_tft.py wandb/sweep-majbrqqw/config-k344ur2u.json
wandb: Currently logged in as: r-clark1242. Use `wandb login --relogin` to force relogin
wandb: WARNING Ignored wandb.init() arg project when running a sweep.
2023-02-21 00:07:28,189 - wandb.wandb_agent - INFO - Running runs: ['k344ur2u']
wandb: Tracking run with wandb version 0.13.10
wandb: Run data is saved locally in /var/lib/condor/execute/dir_1402841/wandb/run-20230221_000727-k344ur2u
wandb: Run `wandb offline` to turn off syncing.
wandb: Syncing run cosmic-sweep-156
wandb: ⭐️ View project at https://wandb.ai/r-clark1242/bayes_fullsweep
wandb: 🧹 View sweep at https://wandb.ai/r-clark1242/bayes_fullsweep/sweeps/majbrqqw
wandb: 🚀 View run at https://wandb.ai/r-clark1242/bayes_fullsweep/runs/k344ur2u
Traceback (most recent call last):
  File "/data/wiay/2386142c/msci_project/condor_jobs/wandb_bayes_fullsweep/bayes_fullsweep_tft.py", line 83, in <module>
    fcst.fit(df=training_df, val_size=vars["val_size"])
  File "/data/wiay/2386142c/msci_project/neuralforecast/neuralforecast/core.py", line 183, in fit
    model.fit(self.dataset, val_size=val_size)
  File "/data/wiay/2386142c/msci_project/neuralforecast/neuralforecast/common/_base_windows.py", line 571, in fit
    trainer.fit(self, datamodule=datamodule)
  File "/data/wiay/2386142c/ml_venv/lib/python3.9/site-packages/pytorch_lightning/trainer/trainer.py", line 770, in fit
    self._call_and_handle_interrupt(
  File "/data/wiay/2386142c/ml_venv/lib/python3.9/site-packages/pytorch_lightning/trainer/trainer.py", line 723, in _call_and_handle_interrupt
    return trainer_fn(*args, **kwargs)
  File "/data/wiay/2386142c/ml_venv/lib/python3.9/site-packages/pytorch_lightning/trainer/trainer.py", line 811, in _fit_impl
    results = self._run(model, ckpt_path=self.ckpt_path)
  File "/data/wiay/2386142c/ml_venv/lib/python3.9/site-packages/pytorch_lightning/trainer/trainer.py", line 1217, in _run
    self.strategy.setup(self)
  File "/data/wiay/2386142c/ml_venv/lib/python3.9/site-packages/pytorch_lightning/strategies/single_device.py", line 71, in setup
    self.model_to_device()
  File "/data/wiay/2386142c/ml_venv/lib/python3.9/site-packages/pytorch_lightning/strategies/single_device.py", line 68, in model_to_device
    self.model.to(self.root_device)
  File "/data/wiay/2386142c/ml_venv/lib/python3.9/site-packages/pytorch_lightning/core/mixins/device_dtype_mixin.py", line 121, in to
    return super().to(*args, **kwargs)
  File "/data/wiay/2386142c/ml_venv/lib/python3.9/site-packages/torch/nn/modules/module.py", line 927, in to
    return self._apply(convert)
  File "/data/wiay/2386142c/ml_venv/lib/python3.9/site-packages/torch/nn/modules/module.py", line 579, in _apply
    module._apply(fn)
  File "/data/wiay/2386142c/ml_venv/lib/python3.9/site-packages/torch/nn/modules/module.py", line 602, in _apply
    param_applied = fn(param)
  File "/data/wiay/2386142c/ml_venv/lib/python3.9/site-packages/torch/nn/modules/module.py", line 925, in convert
    return t.to(device, dtype if t.is_floating_point() or t.is_complex() else None, non_blocking)
RuntimeError: CUDA error: out of memory
CUDA kernel errors might be asynchronously reported at some other API call,so the stacktrace below might be incorrect.
For debugging consider passing CUDA_LAUNCH_BLOCKING=1.
wandb: Waiting for W&B process to finish... (failed 1). Press Control-C to abort syncing.
wandb: 🚀 View run cosmic-sweep-156 at: https://wandb.ai/r-clark1242/bayes_fullsweep/runs/k344ur2u
wandb: Synced 5 W&B file(s), 0 media file(s), 0 artifact file(s) and 0 other file(s)
wandb: Find logs at: ./wandb/run-20230221_000727-k344ur2u/logs
2023-02-21 00:07:38,577 - wandb.wandb_agent - ERROR - Detected 3 failed runs in the first 60 seconds, shutting down.
2023-02-21 00:07:38,577 - wandb.wandb_agent - INFO - To disable this check set WANDB_AGENT_DISABLE_FLAPPING=true
wandb: Terminating and syncing runs. Press ctrl-c to kill.
