wandb: Starting wandb agent 🕵️
2023-02-20 23:45:34,686 - wandb.wandb_agent - INFO - Running runs: []
2023-02-20 23:45:35,237 - wandb.wandb_agent - INFO - Agent received command: run
2023-02-20 23:45:35,237 - wandb.wandb_agent - INFO - Agent starting run with config:
	epochs: 217
	freq: H
	input_size: 297
	layers: 480
	learning_rate: 0.00021796644013603753
	loss_levels: [80, 90]
	output_size: 6
	processed_data_name: all_weather
	val_check_steps: 10
	val_size: 500
	weather_exog_list: ['15']
	windows_batch_size: 32
2023-02-20 23:45:35,240 - wandb.wandb_agent - INFO - About to run command: /data/wiay/2386142c/ml_venv/bin/python /data/wiay/2386142c/msci_project/condor_jobs/wandb_bayes_fullsweep/bayes_fullsweep_tft.py wandb/sweep-majbrqqw/config-mx0b0mv2.json
2023-02-20 23:45:40,251 - wandb.wandb_agent - INFO - Running runs: ['mx0b0mv2']
wandb: Currently logged in as: r-clark1242. Use `wandb login --relogin` to force relogin
wandb: WARNING Ignored wandb.init() arg project when running a sweep.
wandb: Tracking run with wandb version 0.13.10
wandb: Run data is saved locally in /var/lib/condor/execute/dir_1401278/wandb/run-20230220_234540-mx0b0mv2
wandb: Run `wandb offline` to turn off syncing.
wandb: Syncing run fanciful-sweep-149
wandb: ⭐️ View project at https://wandb.ai/r-clark1242/bayes_fullsweep
wandb: 🧹 View sweep at https://wandb.ai/r-clark1242/bayes_fullsweep/sweeps/majbrqqw
wandb: 🚀 View run at https://wandb.ai/r-clark1242/bayes_fullsweep/runs/mx0b0mv2
Traceback (most recent call last):
  File "/data/wiay/2386142c/msci_project/condor_jobs/wandb_bayes_fullsweep/bayes_fullsweep_tft.py", line 83, in <module>
    fcst.fit(df=training_df, val_size=vars["val_size"])
  File "/data/wiay/2386142c/msci_project/neuralforecast/neuralforecast/core.py", line 183, in fit
    model.fit(self.dataset, val_size=val_size)
  File "/data/wiay/2386142c/msci_project/neuralforecast/neuralforecast/common/_base_windows.py", line 571, in fit
    trainer.fit(self, datamodule=datamodule)
  File "/data/wiay/2386142c/ml_venv/lib/python3.9/site-packages/pytorch_lightning/trainer/trainer.py", line 770, in fit
    self._call_and_handle_interrupt(
  File "/data/wiay/2386142c/ml_venv/lib/python3.9/site-packages/pytorch_lightning/trainer/trainer.py", line 723, in _call_and_handle_interrupt
    return trainer_fn(*args, **kwargs)
  File "/data/wiay/2386142c/ml_venv/lib/python3.9/site-packages/pytorch_lightning/trainer/trainer.py", line 811, in _fit_impl
    results = self._run(model, ckpt_path=self.ckpt_path)
  File "/data/wiay/2386142c/ml_venv/lib/python3.9/site-packages/pytorch_lightning/trainer/trainer.py", line 1217, in _run
    self.strategy.setup(self)
  File "/data/wiay/2386142c/ml_venv/lib/python3.9/site-packages/pytorch_lightning/strategies/single_device.py", line 71, in setup
    self.model_to_device()
  File "/data/wiay/2386142c/ml_venv/lib/python3.9/site-packages/pytorch_lightning/strategies/single_device.py", line 68, in model_to_device
    self.model.to(self.root_device)
  File "/data/wiay/2386142c/ml_venv/lib/python3.9/site-packages/pytorch_lightning/core/mixins/device_dtype_mixin.py", line 121, in to
    return super().to(*args, **kwargs)
  File "/data/wiay/2386142c/ml_venv/lib/python3.9/site-packages/torch/nn/modules/module.py", line 927, in to
    return self._apply(convert)
  File "/data/wiay/2386142c/ml_venv/lib/python3.9/site-packages/torch/nn/modules/module.py", line 579, in _apply
    module._apply(fn)
  File "/data/wiay/2386142c/ml_venv/lib/python3.9/site-packages/torch/nn/modules/module.py", line 602, in _apply
    param_applied = fn(param)
  File "/data/wiay/2386142c/ml_venv/lib/python3.9/site-packages/torch/nn/modules/module.py", line 925, in convert
    return t.to(device, dtype if t.is_floating_point() or t.is_complex() else None, non_blocking)
RuntimeError: CUDA error: out of memory
CUDA kernel errors might be asynchronously reported at some other API call,so the stacktrace below might be incorrect.
For debugging consider passing CUDA_LAUNCH_BLOCKING=1.
2023-02-20 23:45:45,420 - wandb.wandb_agent - INFO - Cleaning up finished run: mx0b0mv2
wandb: Waiting for W&B process to finish... (failed 1). Press Control-C to abort syncing.
wandb: - 0.004 MB of 0.004 MB uploaded (0.000 MB deduped)wandb: \ 0.004 MB of 0.007 MB uploaded (0.000 MB deduped)wandb: | 0.009 MB of 0.009 MB uploaded (0.000 MB deduped)wandb: 🚀 View run fanciful-sweep-149 at: https://wandb.ai/r-clark1242/bayes_fullsweep/runs/mx0b0mv2
wandb: Synced 5 W&B file(s), 0 media file(s), 0 artifact file(s) and 0 other file(s)
wandb: Find logs at: ./wandb/run-20230220_234540-mx0b0mv2/logs
2023-02-20 23:45:50,955 - wandb.wandb_agent - INFO - Agent received command: run
2023-02-20 23:45:50,955 - wandb.wandb_agent - INFO - Agent starting run with config:
	epochs: 345
	freq: H
	input_size: 294
	layers: 160
	learning_rate: 5.2024762399209386e-05
	loss_levels: [80, 90]
	output_size: 6
	processed_data_name: all_weather
	val_check_steps: 10
	val_size: 500
	weather_exog_list: ['21']
	windows_batch_size: 128
2023-02-20 23:45:50,958 - wandb.wandb_agent - INFO - About to run command: /data/wiay/2386142c/ml_venv/bin/python /data/wiay/2386142c/msci_project/condor_jobs/wandb_bayes_fullsweep/bayes_fullsweep_tft.py wandb/sweep-majbrqqw/config-j2a96yin.json
wandb: Currently logged in as: r-clark1242. Use `wandb login --relogin` to force relogin
wandb: WARNING Ignored wandb.init() arg project when running a sweep.
2023-02-20 23:45:55,971 - wandb.wandb_agent - INFO - Running runs: ['j2a96yin']
wandb: Tracking run with wandb version 0.13.10
wandb: Run data is saved locally in /var/lib/condor/execute/dir_1401278/wandb/run-20230220_234555-j2a96yin
wandb: Run `wandb offline` to turn off syncing.
wandb: Syncing run expert-sweep-150
wandb: ⭐️ View project at https://wandb.ai/r-clark1242/bayes_fullsweep
wandb: 🧹 View sweep at https://wandb.ai/r-clark1242/bayes_fullsweep/sweeps/majbrqqw
wandb: 🚀 View run at https://wandb.ai/r-clark1242/bayes_fullsweep/runs/j2a96yin
Traceback (most recent call last):
  File "/data/wiay/2386142c/msci_project/condor_jobs/wandb_bayes_fullsweep/bayes_fullsweep_tft.py", line 83, in <module>
    fcst.fit(df=training_df, val_size=vars["val_size"])
  File "/data/wiay/2386142c/msci_project/neuralforecast/neuralforecast/core.py", line 183, in fit
    model.fit(self.dataset, val_size=val_size)
  File "/data/wiay/2386142c/msci_project/neuralforecast/neuralforecast/common/_base_windows.py", line 571, in fit
    trainer.fit(self, datamodule=datamodule)
  File "/data/wiay/2386142c/ml_venv/lib/python3.9/site-packages/pytorch_lightning/trainer/trainer.py", line 770, in fit
    self._call_and_handle_interrupt(
  File "/data/wiay/2386142c/ml_venv/lib/python3.9/site-packages/pytorch_lightning/trainer/trainer.py", line 723, in _call_and_handle_interrupt
    return trainer_fn(*args, **kwargs)
  File "/data/wiay/2386142c/ml_venv/lib/python3.9/site-packages/pytorch_lightning/trainer/trainer.py", line 811, in _fit_impl
    results = self._run(model, ckpt_path=self.ckpt_path)
  File "/data/wiay/2386142c/ml_venv/lib/python3.9/site-packages/pytorch_lightning/trainer/trainer.py", line 1217, in _run
    self.strategy.setup(self)
  File "/data/wiay/2386142c/ml_venv/lib/python3.9/site-packages/pytorch_lightning/strategies/single_device.py", line 71, in setup
    self.model_to_device()
  File "/data/wiay/2386142c/ml_venv/lib/python3.9/site-packages/pytorch_lightning/strategies/single_device.py", line 68, in model_to_device
    self.model.to(self.root_device)
  File "/data/wiay/2386142c/ml_venv/lib/python3.9/site-packages/pytorch_lightning/core/mixins/device_dtype_mixin.py", line 121, in to
    return super().to(*args, **kwargs)
  File "/data/wiay/2386142c/ml_venv/lib/python3.9/site-packages/torch/nn/modules/module.py", line 927, in to
    return self._apply(convert)
  File "/data/wiay/2386142c/ml_venv/lib/python3.9/site-packages/torch/nn/modules/module.py", line 579, in _apply
    module._apply(fn)
  File "/data/wiay/2386142c/ml_venv/lib/python3.9/site-packages/torch/nn/modules/module.py", line 602, in _apply
    param_applied = fn(param)
  File "/data/wiay/2386142c/ml_venv/lib/python3.9/site-packages/torch/nn/modules/module.py", line 925, in convert
    return t.to(device, dtype if t.is_floating_point() or t.is_complex() else None, non_blocking)
RuntimeError: CUDA error: out of memory
CUDA kernel errors might be asynchronously reported at some other API call,so the stacktrace below might be incorrect.
For debugging consider passing CUDA_LAUNCH_BLOCKING=1.
wandb: Waiting for W&B process to finish... (failed 1). Press Control-C to abort syncing.
wandb: 🚀 View run expert-sweep-150 at: https://wandb.ai/r-clark1242/bayes_fullsweep/runs/j2a96yin
wandb: Synced 5 W&B file(s), 0 media file(s), 0 artifact file(s) and 0 other file(s)
wandb: Find logs at: ./wandb/run-20230220_234555-j2a96yin/logs
2023-02-20 23:46:06,327 - wandb.wandb_agent - INFO - Cleaning up finished run: j2a96yin
2023-02-20 23:46:11,542 - wandb.wandb_agent - INFO - Agent received command: run
2023-02-20 23:46:11,543 - wandb.wandb_agent - INFO - Agent starting run with config:
	epochs: 398
	freq: H
	input_size: 116
	layers: 560
	learning_rate: 2.856169185885553e-05
	loss_levels: [80, 90]
	output_size: 6
	processed_data_name: all_weather
	val_check_steps: 10
	val_size: 500
	weather_exog_list: ['11']
	windows_batch_size: 1024
2023-02-20 23:46:11,545 - wandb.wandb_agent - INFO - About to run command: /data/wiay/2386142c/ml_venv/bin/python /data/wiay/2386142c/msci_project/condor_jobs/wandb_bayes_fullsweep/bayes_fullsweep_tft.py wandb/sweep-majbrqqw/config-b4rt7bwc.json
wandb: Currently logged in as: r-clark1242. Use `wandb login --relogin` to force relogin
wandb: WARNING Ignored wandb.init() arg project when running a sweep.
2023-02-20 23:46:16,556 - wandb.wandb_agent - INFO - Running runs: ['b4rt7bwc']
wandb: Tracking run with wandb version 0.13.10
wandb: Run data is saved locally in /var/lib/condor/execute/dir_1401278/wandb/run-20230220_234616-b4rt7bwc
wandb: Run `wandb offline` to turn off syncing.
wandb: Syncing run divine-sweep-151
wandb: ⭐️ View project at https://wandb.ai/r-clark1242/bayes_fullsweep
wandb: 🧹 View sweep at https://wandb.ai/r-clark1242/bayes_fullsweep/sweeps/majbrqqw
wandb: 🚀 View run at https://wandb.ai/r-clark1242/bayes_fullsweep/runs/b4rt7bwc
Traceback (most recent call last):
  File "/data/wiay/2386142c/msci_project/condor_jobs/wandb_bayes_fullsweep/bayes_fullsweep_tft.py", line 83, in <module>
    fcst.fit(df=training_df, val_size=vars["val_size"])
  File "/data/wiay/2386142c/msci_project/neuralforecast/neuralforecast/core.py", line 183, in fit
    model.fit(self.dataset, val_size=val_size)
  File "/data/wiay/2386142c/msci_project/neuralforecast/neuralforecast/common/_base_windows.py", line 571, in fit
    trainer.fit(self, datamodule=datamodule)
  File "/data/wiay/2386142c/ml_venv/lib/python3.9/site-packages/pytorch_lightning/trainer/trainer.py", line 770, in fit
    self._call_and_handle_interrupt(
  File "/data/wiay/2386142c/ml_venv/lib/python3.9/site-packages/pytorch_lightning/trainer/trainer.py", line 723, in _call_and_handle_interrupt
    return trainer_fn(*args, **kwargs)
  File "/data/wiay/2386142c/ml_venv/lib/python3.9/site-packages/pytorch_lightning/trainer/trainer.py", line 811, in _fit_impl
    results = self._run(model, ckpt_path=self.ckpt_path)
  File "/data/wiay/2386142c/ml_venv/lib/python3.9/site-packages/pytorch_lightning/trainer/trainer.py", line 1217, in _run
    self.strategy.setup(self)
  File "/data/wiay/2386142c/ml_venv/lib/python3.9/site-packages/pytorch_lightning/strategies/single_device.py", line 71, in setup
    self.model_to_device()
  File "/data/wiay/2386142c/ml_venv/lib/python3.9/site-packages/pytorch_lightning/strategies/single_device.py", line 68, in model_to_device
    self.model.to(self.root_device)
  File "/data/wiay/2386142c/ml_venv/lib/python3.9/site-packages/pytorch_lightning/core/mixins/device_dtype_mixin.py", line 121, in to
    return super().to(*args, **kwargs)
  File "/data/wiay/2386142c/ml_venv/lib/python3.9/site-packages/torch/nn/modules/module.py", line 927, in to
    return self._apply(convert)
  File "/data/wiay/2386142c/ml_venv/lib/python3.9/site-packages/torch/nn/modules/module.py", line 579, in _apply
    module._apply(fn)
  File "/data/wiay/2386142c/ml_venv/lib/python3.9/site-packages/torch/nn/modules/module.py", line 602, in _apply
    param_applied = fn(param)
  File "/data/wiay/2386142c/ml_venv/lib/python3.9/site-packages/torch/nn/modules/module.py", line 925, in convert
    return t.to(device, dtype if t.is_floating_point() or t.is_complex() else None, non_blocking)
RuntimeError: CUDA error: out of memory
CUDA kernel errors might be asynchronously reported at some other API call,so the stacktrace below might be incorrect.
For debugging consider passing CUDA_LAUNCH_BLOCKING=1.
wandb: Waiting for W&B process to finish... (failed 1). Press Control-C to abort syncing.
wandb: 🚀 View run divine-sweep-151 at: https://wandb.ai/r-clark1242/bayes_fullsweep/runs/b4rt7bwc
wandb: Synced 5 W&B file(s), 0 media file(s), 0 artifact file(s) and 0 other file(s)
wandb: Find logs at: ./wandb/run-20230220_234616-b4rt7bwc/logs
2023-02-20 23:46:26,904 - wandb.wandb_agent - INFO - Cleaning up finished run: b4rt7bwc
2023-02-20 23:46:27,660 - wandb.wandb_agent - INFO - Agent received command: run
2023-02-20 23:46:27,660 - wandb.wandb_agent - INFO - Agent starting run with config:
	epochs: 212
	freq: H
	input_size: 330
	layers: 320
	learning_rate: 0.0002983982413579017
	loss_levels: [80, 90]
	output_size: 6
	processed_data_name: all_weather
	val_check_steps: 10
	val_size: 500
	weather_exog_list: ['12']
	windows_batch_size: 32
2023-02-20 23:46:27,665 - wandb.wandb_agent - INFO - About to run command: /data/wiay/2386142c/ml_venv/bin/python /data/wiay/2386142c/msci_project/condor_jobs/wandb_bayes_fullsweep/bayes_fullsweep_tft.py wandb/sweep-majbrqqw/config-wjk38aew.json
2023-02-20 23:46:32,680 - wandb.wandb_agent - INFO - Running runs: ['wjk38aew']
wandb: Currently logged in as: r-clark1242. Use `wandb login --relogin` to force relogin
wandb: WARNING Ignored wandb.init() arg project when running a sweep.
wandb: Tracking run with wandb version 0.13.10
wandb: Run data is saved locally in /var/lib/condor/execute/dir_1401278/wandb/run-20230220_234632-wjk38aew
wandb: Run `wandb offline` to turn off syncing.
wandb: Syncing run smart-sweep-152
wandb: ⭐️ View project at https://wandb.ai/r-clark1242/bayes_fullsweep
wandb: 🧹 View sweep at https://wandb.ai/r-clark1242/bayes_fullsweep/sweeps/majbrqqw
wandb: 🚀 View run at https://wandb.ai/r-clark1242/bayes_fullsweep/runs/wjk38aew
Traceback (most recent call last):
  File "/data/wiay/2386142c/msci_project/condor_jobs/wandb_bayes_fullsweep/bayes_fullsweep_tft.py", line 83, in <module>
    fcst.fit(df=training_df, val_size=vars["val_size"])
  File "/data/wiay/2386142c/msci_project/neuralforecast/neuralforecast/core.py", line 183, in fit
    model.fit(self.dataset, val_size=val_size)
  File "/data/wiay/2386142c/msci_project/neuralforecast/neuralforecast/common/_base_windows.py", line 571, in fit
    trainer.fit(self, datamodule=datamodule)
  File "/data/wiay/2386142c/ml_venv/lib/python3.9/site-packages/pytorch_lightning/trainer/trainer.py", line 770, in fit
    self._call_and_handle_interrupt(
  File "/data/wiay/2386142c/ml_venv/lib/python3.9/site-packages/pytorch_lightning/trainer/trainer.py", line 723, in _call_and_handle_interrupt
    return trainer_fn(*args, **kwargs)
  File "/data/wiay/2386142c/ml_venv/lib/python3.9/site-packages/pytorch_lightning/trainer/trainer.py", line 811, in _fit_impl
    results = self._run(model, ckpt_path=self.ckpt_path)
  File "/data/wiay/2386142c/ml_venv/lib/python3.9/site-packages/pytorch_lightning/trainer/trainer.py", line 1217, in _run
    self.strategy.setup(self)
  File "/data/wiay/2386142c/ml_venv/lib/python3.9/site-packages/pytorch_lightning/strategies/single_device.py", line 71, in setup
    self.model_to_device()
  File "/data/wiay/2386142c/ml_venv/lib/python3.9/site-packages/pytorch_lightning/strategies/single_device.py", line 68, in model_to_device
    self.model.to(self.root_device)
  File "/data/wiay/2386142c/ml_venv/lib/python3.9/site-packages/pytorch_lightning/core/mixins/device_dtype_mixin.py", line 121, in to
    return super().to(*args, **kwargs)
  File "/data/wiay/2386142c/ml_venv/lib/python3.9/site-packages/torch/nn/modules/module.py", line 927, in to
    return self._apply(convert)
  File "/data/wiay/2386142c/ml_venv/lib/python3.9/site-packages/torch/nn/modules/module.py", line 579, in _apply
    module._apply(fn)
  File "/data/wiay/2386142c/ml_venv/lib/python3.9/site-packages/torch/nn/modules/module.py", line 602, in _apply
    param_applied = fn(param)
  File "/data/wiay/2386142c/ml_venv/lib/python3.9/site-packages/torch/nn/modules/module.py", line 925, in convert
    return t.to(device, dtype if t.is_floating_point() or t.is_complex() else None, non_blocking)
RuntimeError: CUDA error: out of memory
CUDA kernel errors might be asynchronously reported at some other API call,so the stacktrace below might be incorrect.
For debugging consider passing CUDA_LAUNCH_BLOCKING=1.
wandb: Waiting for W&B process to finish... (failed 1). Press Control-C to abort syncing.
wandb: 🚀 View run smart-sweep-152 at: https://wandb.ai/r-clark1242/bayes_fullsweep/runs/wjk38aew
wandb: Synced 5 W&B file(s), 0 media file(s), 0 artifact file(s) and 0 other file(s)
wandb: Find logs at: ./wandb/run-20230220_234632-wjk38aew/logs
2023-02-20 23:46:43,029 - wandb.wandb_agent - INFO - Cleaning up finished run: wjk38aew
2023-02-20 23:46:43,558 - wandb.wandb_agent - INFO - Agent received command: run
2023-02-20 23:46:43,559 - wandb.wandb_agent - INFO - Agent starting run with config:
	epochs: 366
	freq: H
	input_size: 146
	layers: 140
	learning_rate: 0.002303998864077344
	loss_levels: [80, 90]
	output_size: 6
	processed_data_name: all_weather
	val_check_steps: 10
	val_size: 500
	weather_exog_list: ['4']
	windows_batch_size: 1024
2023-02-20 23:46:43,563 - wandb.wandb_agent - INFO - About to run command: /data/wiay/2386142c/ml_venv/bin/python /data/wiay/2386142c/msci_project/condor_jobs/wandb_bayes_fullsweep/bayes_fullsweep_tft.py wandb/sweep-majbrqqw/config-b4lk2ena.json
2023-02-20 23:46:48,579 - wandb.wandb_agent - INFO - Running runs: ['b4lk2ena']
wandb: Currently logged in as: r-clark1242. Use `wandb login --relogin` to force relogin
wandb: WARNING Ignored wandb.init() arg project when running a sweep.
wandb: Tracking run with wandb version 0.13.10
wandb: Run data is saved locally in /var/lib/condor/execute/dir_1401278/wandb/run-20230220_234648-b4lk2ena
wandb: Run `wandb offline` to turn off syncing.
wandb: Syncing run revived-sweep-153
wandb: ⭐️ View project at https://wandb.ai/r-clark1242/bayes_fullsweep
wandb: 🧹 View sweep at https://wandb.ai/r-clark1242/bayes_fullsweep/sweeps/majbrqqw
wandb: 🚀 View run at https://wandb.ai/r-clark1242/bayes_fullsweep/runs/b4lk2ena
Traceback (most recent call last):
  File "/data/wiay/2386142c/msci_project/condor_jobs/wandb_bayes_fullsweep/bayes_fullsweep_tft.py", line 83, in <module>
    fcst.fit(df=training_df, val_size=vars["val_size"])
  File "/data/wiay/2386142c/msci_project/neuralforecast/neuralforecast/core.py", line 183, in fit
    model.fit(self.dataset, val_size=val_size)
  File "/data/wiay/2386142c/msci_project/neuralforecast/neuralforecast/common/_base_windows.py", line 571, in fit
    trainer.fit(self, datamodule=datamodule)
  File "/data/wiay/2386142c/ml_venv/lib/python3.9/site-packages/pytorch_lightning/trainer/trainer.py", line 770, in fit
    self._call_and_handle_interrupt(
  File "/data/wiay/2386142c/ml_venv/lib/python3.9/site-packages/pytorch_lightning/trainer/trainer.py", line 723, in _call_and_handle_interrupt
    return trainer_fn(*args, **kwargs)
  File "/data/wiay/2386142c/ml_venv/lib/python3.9/site-packages/pytorch_lightning/trainer/trainer.py", line 811, in _fit_impl
    results = self._run(model, ckpt_path=self.ckpt_path)
  File "/data/wiay/2386142c/ml_venv/lib/python3.9/site-packages/pytorch_lightning/trainer/trainer.py", line 1217, in _run
    self.strategy.setup(self)
  File "/data/wiay/2386142c/ml_venv/lib/python3.9/site-packages/pytorch_lightning/strategies/single_device.py", line 71, in setup
    self.model_to_device()
  File "/data/wiay/2386142c/ml_venv/lib/python3.9/site-packages/pytorch_lightning/strategies/single_device.py", line 68, in model_to_device
    self.model.to(self.root_device)
  File "/data/wiay/2386142c/ml_venv/lib/python3.9/site-packages/pytorch_lightning/core/mixins/device_dtype_mixin.py", line 121, in to
    return super().to(*args, **kwargs)
  File "/data/wiay/2386142c/ml_venv/lib/python3.9/site-packages/torch/nn/modules/module.py", line 927, in to
    return self._apply(convert)
  File "/data/wiay/2386142c/ml_venv/lib/python3.9/site-packages/torch/nn/modules/module.py", line 579, in _apply
    module._apply(fn)
  File "/data/wiay/2386142c/ml_venv/lib/python3.9/site-packages/torch/nn/modules/module.py", line 602, in _apply
    param_applied = fn(param)
  File "/data/wiay/2386142c/ml_venv/lib/python3.9/site-packages/torch/nn/modules/module.py", line 925, in convert
    return t.to(device, dtype if t.is_floating_point() or t.is_complex() else None, non_blocking)
RuntimeError: CUDA error: out of memory
CUDA kernel errors might be asynchronously reported at some other API call,so the stacktrace below might be incorrect.
For debugging consider passing CUDA_LAUNCH_BLOCKING=1.
wandb: Waiting for W&B process to finish... (failed 1). Press Control-C to abort syncing.
wandb: 🚀 View run revived-sweep-153 at: https://wandb.ai/r-clark1242/bayes_fullsweep/runs/b4lk2ena
wandb: Synced 5 W&B file(s), 0 media file(s), 0 artifact file(s) and 0 other file(s)
wandb: Find logs at: ./wandb/run-20230220_234648-b4lk2ena/logs
2023-02-20 23:46:58,914 - wandb.wandb_agent - ERROR - Detected 5 failed runs in a row, shutting down.
2023-02-20 23:46:58,914 - wandb.wandb_agent - INFO - To change this value set WANDB_AGENT_MAX_INITIAL_FAILURES=val
wandb: Terminating and syncing runs. Press ctrl-c to kill.
